[
	{
		"time": 1672502368042,
		"file": "2022-12-31-23-59-28.zip",
		"index": 1,
		"success": true,
		"size": 20062852
	},
	{
		"time": 1672571277250,
		"file": "2023-01-01-19-07-57.zip",
		"index": 2,
		"success": true,
		"size": 20081683
	}
]