[
  {
    "user": {
      "type": "player",
      "name": "Kvroha",
      "uniqueId": "2129107a-4a14-4c97-9124-f7ea6115f569"
    },
    "time": 1630867730282,
    "type": "Heap dump",
    "data": {
      "type": "file",
      "value": "E:\\Isekai Fantasy Life\\config\\spark\\heap-2021-09-06_02.48.29.hprof"
    }
  }
]